Análisis sistemático de datos con R. Indicadores de calidad del dato - A - Pirámides demográficas
…
`summarise()` has grouped output by 'periodo_fct'. You can override using the
`.groups` argument.

tabla2

# A tibble: 39 × 8
# Groups:   periodo_fct [39]
   periodo_fct           Elfo   Enano     Ent   Hobbit  Humano     Orco   Troll
   <ord>                <dbl>   <dbl>   <dbl>    <dbl>   <dbl>    <dbl>   <dbl>
 1 1 de enero de 2002 6139922 3861480  998647 15382280   17337  6290040 8345177
 2 1 de julio de 2002 8760105 1960334 1643904 14544921  158916 12951827 1403067
 3 1 de enero de 2003 8734955 6796097 2566830 19122606   49577  4438474  118781
 4 1 de julio de 2003 4117514 4404184 4563325 15194099   95834  9789203 4031535
 5 1 de enero de 2004 2658337 4608853 2335305 22254108 1430821  7348457 1911022
 6 1 de julio de 2004 4094152 2742440 3255613 20109843  246565  7188136 5221846
 7 1 de enero de 2005 8410233 1995050  892799 22274000 3723737  5033688  966222
 8 1 de julio de 2005 3971072 4600777 2658542 21896829   57900  7475019 3001851
 9 1 de enero de 2006 9525740 3092417  114142 13572497 2222105  6665380 8817073
10 1 de julio de 2006 6885368 6455045 1659792 17990766  119578  9024287 2225061
# ℹ 29 more rows
…
